%YAML 1.1
%TAG !u! tag:unity3d.com,2011:
--- !u!1 &3663316881368206340
GameObject:
  m_ObjectHideFlags: 0
  m_CorrespondingSourceObject: {fileID: 0}
  m_PrefabInstance: {fileID: 0}
  m_PrefabAsset: {fileID: 0}
  serializedVersion: 6
  m_Component:
  - component: {fileID: 5518022054918831733}
  - component: {fileID: 4169957322805315012}
  - component: {fileID: 2956582636385382909}
  m_Layer: 0
  m_Name: Layer1
  m_TagString: Untagged
  m_Icon: {fileID: 0}
  m_NavMeshLayer: 0
  m_StaticEditorFlags: 0
  m_IsActive: 1
--- !u!4 &5518022054918831733
Transform:
  m_ObjectHideFlags: 0
  m_CorrespondingSourceObject: {fileID: 0}
  m_PrefabInstance: {fileID: 0}
  m_PrefabAsset: {fileID: 0}
  m_GameObject: {fileID: 3663316881368206340}
  m_LocalRotation: {x: -0, y: -0, z: -0, w: 1}
  m_LocalPosition: {x: 0, y: 0, z: 0}
  m_LocalScale: {x: 1, y: 1, z: 1}
  m_Children: []
  m_Father: {fileID: 1260895910542913613}
  m_RootOrder: 0
  m_LocalEulerAnglesHint: {x: 0, y: 0, z: 0}
--- !u!1839735485 &4169957322805315012
Tilemap:
  m_ObjectHideFlags: 0
  m_CorrespondingSourceObject: {fileID: 0}
  m_PrefabInstance: {fileID: 0}
  m_PrefabAsset: {fileID: 0}
  m_GameObject: {fileID: 3663316881368206340}
  m_Enabled: 1
  m_Tiles:
  - first: {x: 2, y: -6, z: 0}
    second:
      serializedVersion: 2
      m_TileIndex: 38
      m_TileSpriteIndex: 38
      m_TileMatrixIndex: 0
      m_TileColorIndex: 5
      m_TileObjectToInstantiateIndex: 65535
      dummyAlignment: 0
      m_AllTileFlags: 1073741827
  - first: {x: 0, y: -5, z: 0}
    second:
      serializedVersion: 2
      m_TileIndex: 37
      m_TileSpriteIndex: 37
      m_TileMatrixIndex: 0
      m_TileColorIndex: 4
      m_TileObjectToInstantiateIndex: 65535
      dummyAlignment: 0
      m_AllTileFlags: 1073741825
  - first: {x: 1, y: -5, z: 0}
    second:
      serializedVersion: 2
      m_TileIndex: 36
      m_TileSpriteIndex: 36
      m_TileMatrixIndex: 0
      m_TileColorIndex: 4
      m_TileObjectToInstantiateIndex: 65535
      dummyAlignment: 0
      m_AllTileFlags: 1073741825
  - first: {x: -1, y: -4, z: 0}
    second:
      serializedVersion: 2
      m_TileIndex: 35
      m_TileSpriteIndex: 35
      m_TileMatrixIndex: 0
      m_TileColorIndex: 4
      m_TileObjectToInstantiateIndex: 65535
      dummyAlignment: 0
      m_AllTileFlags: 1073741825
  - first: {x: 0, y: -4, z: 0}
    second:
      serializedVersion: 2
      m_TileIndex: 34
      m_TileSpriteIndex: 34
      m_TileMatrixIndex: 0
      m_TileColorIndex: 4
      m_TileObjectToInstantiateIndex: 65535
      dummyAlignment: 0
      m_AllTileFlags: 1073741825
  - first: {x: 1, y: -4, z: 0}
    second:
      serializedVersion: 2
      m_TileIndex: 33
      m_TileSpriteIndex: 33
      m_TileMatrixIndex: 0
      m_TileColorIndex: 4
      m_TileObjectToInstantiateIndex: 65535
      dummyAlignment: 0
      m_AllTileFlags: 1073741825
  - first: {x: 2, y: -4, z: 0}
    second:
      serializedVersion: 2
      m_TileIndex: 32
      m_TileSpriteIndex: 32
      m_TileMatrixIndex: 0
      m_TileColorIndex: 4
      m_TileObjectToInstantiateIndex: 65535
      dummyAlignment: 0
      m_AllTileFlags: 1073741825
  - first: {x: 4, y: -4, z: 0}
    second:
      serializedVersion: 2
      m_TileIndex: 31
      m_TileSpriteIndex: 31
      m_TileMatrixIndex: 0
      m_TileColorIndex: 4
      m_TileObjectToInstantiateIndex: 65535
      dummyAlignment: 0
      m_AllTileFlags: 1073741825
  - first: {x: 2, y: -3, z: 0}
    second:
      serializedVersion: 2
      m_TileIndex: 30
      m_TileSpriteIndex: 30
      m_TileMatrixIndex: 0
      m_TileColorIndex: 4
      m_TileObjectToInstantiateIndex: 65535
      dummyAlignment: 0
      m_AllTileFlags: 1073741825
  - first: {x: 4, y: -3, z: 0}
    second:
      serializedVersion: 2
      m_TileIndex: 29
      m_TileSpriteIndex: 29
      m_TileMatrixIndex: 0
      m_TileColorIndex: 4
      m_TileObjectToInstantiateIndex: 65535
      dummyAlignment: 0
      m_AllTileFlags: 1073741825
  - first: {x: -1, y: -2, z: 0}
    second:
      serializedVersion: 2
      m_TileIndex: 28
      m_TileSpriteIndex: 28
      m_TileMatrixIndex: 0
      m_TileColorIndex: 4
      m_TileObjectToInstantiateIndex: 65535
      dummyAlignment: 0
      m_AllTileFlags: 1073741825
  - first: {x: 1, y: -2, z: 0}
    second:
      serializedVersion: 2
      m_TileIndex: 27
      m_TileSpriteIndex: 27
      m_TileMatrixIndex: 0
      m_TileColorIndex: 4
      m_TileObjectToInstantiateIndex: 65535
      dummyAlignment: 0
      m_AllTileFlags: 1073741825
  - first: {x: 2, y: -2, z: 0}
    second:
      serializedVersion: 2
      m_TileIndex: 26
      m_TileSpriteIndex: 26
      m_TileMatrixIndex: 0
      m_TileColorIndex: 4
      m_TileObjectToInstantiateIndex: 65535
      dummyAlignment: 0
      m_AllTileFlags: 1073741825
  - first: {x: 3, y: -2, z: 0}
    second:
      serializedVersion: 2
      m_TileIndex: 25
      m_TileSpriteIndex: 25
      m_TileMatrixIndex: 0
      m_TileColorIndex: 4
      m_TileObjectToInstantiateIndex: 65535
      dummyAlignment: 0
      m_AllTileFlags: 1073741825
  - first: {x: 4, y: -2, z: 0}
    second:
      serializedVersion: 2
      m_TileIndex: 24
      m_TileSpriteIndex: 24
      m_TileMatrixIndex: 0
      m_TileColorIndex: 4
      m_TileObjectToInstantiateIndex: 65535
      dummyAlignment: 0
      m_AllTileFlags: 1073741825
  - first: {x: 5, y: -2, z: 0}
    second:
      serializedVersion: 2
      m_TileIndex: 23
      m_TileSpriteIndex: 23
      m_TileMatrixIndex: 0
      m_TileColorIndex: 4
      m_TileObjectToInstantiateIndex: 65535
      dummyAlignment: 0
      m_AllTileFlags: 1073741825
  - first: {x: -1, y: -1, z: 0}
    second:
      serializedVersion: 2
      m_TileIndex: 22
      m_TileSpriteIndex: 22
      m_TileMatrixIndex: 0
      m_TileColorIndex: 4
      m_TileObjectToInstantiateIndex: 65535
      dummyAlignment: 0
      m_AllTileFlags: 1073741825
  - first: {x: 0, y: -1, z: 0}
    second:
      serializedVersion: 2
      m_TileIndex: 21
      m_TileSpriteIndex: 21
      m_TileMatrixIndex: 0
      m_TileColorIndex: 4
      m_TileObjectToInstantiateIndex: 65535
      dummyAlignment: 0
      m_AllTileFlags: 1073741825
  - first: {x: 1, y: -1, z: 0}
    second:
      serializedVersion: 2
      m_TileIndex: 20
      m_TileSpriteIndex: 20
      m_TileMatrixIndex: 0
      m_TileColorIndex: 4
      m_TileObjectToInstantiateIndex: 65535
      dummyAlignment: 0
      m_AllTileFlags: 1073741825
  - first: {x: 2, y: -1, z: 0}
    second:
      serializedVersion: 2
      m_TileIndex: 19
      m_TileSpriteIndex: 19
      m_TileMatrixIndex: 0
      m_TileColorIndex: 4
      m_TileObjectToInstantiateIndex: 65535
      dummyAlignment: 0
      m_AllTileFlags: 1073741825
  - first: {x: 3, y: -1, z: 0}
    second:
      serializedVersion: 2
      m_TileIndex: 18
      m_TileSpriteIndex: 18
      m_TileMatrixIndex: 0
      m_TileColorIndex: 4
      m_TileObjectToInstantiateIndex: 65535
      dummyAlignment: 0
      m_AllTileFlags: 1073741825
  - first: {x: 4, y: -1, z: 0}
    second:
      serializedVersion: 2
      m_TileIndex: 17
      m_TileSpriteIndex: 17
      m_TileMatrixIndex: 0
      m_TileColorIndex: 4
      m_TileObjectToInstantiateIndex: 65535
      dummyAlignment: 0
      m_AllTileFlags: 1073741825
  - first: {x: -1, y: 0, z: 0}
    second:
      serializedVersion: 2
      m_TileIndex: 16
      m_TileSpriteIndex: 16
      m_TileMatrixIndex: 0
      m_TileColorIndex: 4
      m_TileObjectToInstantiateIndex: 65535
      dummyAlignment: 0
      m_AllTileFlags: 1073741825
  - first: {x: 0, y: 0, z: 0}
    second:
      serializedVersion: 2
      m_TileIndex: 15
      m_TileSpriteIndex: 15
      m_TileMatrixIndex: 0
      m_TileColorIndex: 4
      m_TileObjectToInstantiateIndex: 65535
      dummyAlignment: 0
      m_AllTileFlags: 1073741825
  - first: {x: 1, y: 0, z: 0}
    second:
      serializedVersion: 2
      m_TileIndex: 14
      m_TileSpriteIndex: 14
      m_TileMatrixIndex: 0
      m_TileColorIndex: 4
      m_TileObjectToInstantiateIndex: 65535
      dummyAlignment: 0
      m_AllTileFlags: 1073741825
  - first: {x: 2, y: 0, z: 0}
    second:
      serializedVersion: 2
      m_TileIndex: 13
      m_TileSpriteIndex: 13
      m_TileMatrixIndex: 0
      m_TileColorIndex: 4
      m_TileObjectToInstantiateIndex: 65535
      dummyAlignment: 0
      m_AllTileFlags: 1073741825
  - first: {x: 3, y: 0, z: 0}
    second:
      serializedVersion: 2
      m_TileIndex: 12
      m_TileSpriteIndex: 12
      m_TileMatrixIndex: 0
      m_TileColorIndex: 4
      m_TileObjectToInstantiateIndex: 65535
      dummyAlignment: 0
      m_AllTileFlags: 1073741825
  - first: {x: 2, y: 1, z: 0}
    second:
      serializedVersion: 2
      m_TileIndex: 11
      m_TileSpriteIndex: 11
      m_TileMatrixIndex: 0
      m_TileColorIndex: 4
      m_TileObjectToInstantiateIndex: 65535
      dummyAlignment: 0
      m_AllTileFlags: 1073741825
  - first: {x: 3, y: 1, z: 0}
    second:
      serializedVersion: 2
      m_TileIndex: 10
      m_TileSpriteIndex: 10
      m_TileMatrixIndex: 0
      m_TileColorIndex: 4
      m_TileObjectToInstantiateIndex: 65535
      dummyAlignment: 0
      m_AllTileFlags: 1073741825
  - first: {x: 5, y: 1, z: 0}
    second:
      serializedVersion: 2
      m_TileIndex: 9
      m_TileSpriteIndex: 9
      m_TileMatrixIndex: 0
      m_TileColorIndex: 4
      m_TileObjectToInstantiateIndex: 65535
      dummyAlignment: 0
      m_AllTileFlags: 1073741825
  - first: {x: -1, y: 2, z: 0}
    second:
      serializedVersion: 2
      m_TileIndex: 8
      m_TileSpriteIndex: 8
      m_TileMatrixIndex: 0
      m_TileColorIndex: 4
      m_TileObjectToInstantiateIndex: 65535
      dummyAlignment: 0
      m_AllTileFlags: 1073741825
  - first: {x: 0, y: 2, z: 0}
    second:
      serializedVersion: 2
      m_TileIndex: 7
      m_TileSpriteIndex: 7
      m_TileMatrixIndex: 0
      m_TileColorIndex: 4
      m_TileObjectToInstantiateIndex: 65535
      dummyAlignment: 0
      m_AllTileFlags: 1073741825
  - first: {x: 2, y: 2, z: 0}
    second:
      serializedVersion: 2
      m_TileIndex: 6
      m_TileSpriteIndex: 6
      m_TileMatrixIndex: 0
      m_TileColorIndex: 4
      m_TileObjectToInstantiateIndex: 65535
      dummyAlignment: 0
      m_AllTileFlags: 1073741825
  - first: {x: 3, y: 2, z: 0}
    second:
      serializedVersion: 2
      m_TileIndex: 5
      m_TileSpriteIndex: 5
      m_TileMatrixIndex: 0
      m_TileColorIndex: 4
      m_TileObjectToInstantiateIndex: 65535
      dummyAlignment: 0
      m_AllTileFlags: 1073741825
  - first: {x: 4, y: 2, z: 0}
    second:
      serializedVersion: 2
      m_TileIndex: 4
      m_TileSpriteIndex: 4
      m_TileMatrixIndex: 0
      m_TileColorIndex: 4
      m_TileObjectToInstantiateIndex: 65535
      dummyAlignment: 0
      m_AllTileFlags: 1073741825
  - first: {x: 5, y: 2, z: 0}
    second:
      serializedVersion: 2
      m_TileIndex: 3
      m_TileSpriteIndex: 3
      m_TileMatrixIndex: 0
      m_TileColorIndex: 4
      m_TileObjectToInstantiateIndex: 65535
      dummyAlignment: 0
      m_AllTileFlags: 1073741825
  - first: {x: 6, y: 2, z: 0}
    second:
      serializedVersion: 2
      m_TileIndex: 2
      m_TileSpriteIndex: 2
      m_TileMatrixIndex: 0
      m_TileColorIndex: 4
      m_TileObjectToInstantiateIndex: 65535
      dummyAlignment: 0
      m_AllTileFlags: 1073741825
  - first: {x: 7, y: 2, z: 0}
    second:
      serializedVersion: 2
      m_TileIndex: 1
      m_TileSpriteIndex: 1
      m_TileMatrixIndex: 0
      m_TileColorIndex: 4
      m_TileObjectToInstantiateIndex: 65535
      dummyAlignment: 0
      m_AllTileFlags: 1073741825
  - first: {x: 3, y: 3, z: 0}
    second:
      serializedVersion: 2
      m_TileIndex: 0
      m_TileSpriteIndex: 0
      m_TileMatrixIndex: 0
      m_TileColorIndex: 4
      m_TileObjectToInstantiateIndex: 65535
      dummyAlignment: 0
      m_AllTileFlags: 1073741825
  m_AnimatedTiles: {}
  m_TileAssetArray:
  - m_RefCount: 1
    m_Data: {fileID: 11400000, guid: bbcb109fcdc1e6c469e0c880fa04689b, type: 2}
  - m_RefCount: 1
    m_Data: {fileID: 11400000, guid: f3ab6cecbfa3b4342927139629bd3ada, type: 2}
  - m_RefCount: 1
    m_Data: {fileID: 11400000, guid: e6f690fab156215419bf21a6526a161e, type: 2}
  - m_RefCount: 1
    m_Data: {fileID: 11400000, guid: d3bb1fa7565005a4ab12147a393d8b59, type: 2}
  - m_RefCount: 1
    m_Data: {fileID: 11400000, guid: e59dc7d12e149b1468cb8b2c3fafd4b5, type: 2}
  - m_RefCount: 1
    m_Data: {fileID: 11400000, guid: 8f7d2dbcf7ae658498728358f931c1a7, type: 2}
  - m_RefCount: 1
    m_Data: {fileID: 11400000, guid: 1e4edafe0d1778d4aa27029f912e064f, type: 2}
  - m_RefCount: 1
    m_Data: {fileID: 11400000, guid: 1efc362318885574e84e7da2174b06d1, type: 2}
  - m_RefCount: 1
    m_Data: {fileID: 11400000, guid: 80dead0b2dc2da74591c7474405e40df, type: 2}
  - m_RefCount: 1
    m_Data: {fileID: 11400000, guid: 5cc8728c77c25414daab2c9f5b9efb63, type: 2}
  - m_RefCount: 1
    m_Data: {fileID: 11400000, guid: cef494cb48e8b2641a4f9c94405d97fb, type: 2}
  - m_RefCount: 1
    m_Data: {fileID: 11400000, guid: 92e87d4bfd4826c41b0a2691df4ef164, type: 2}
  - m_RefCount: 1
    m_Data: {fileID: 11400000, guid: 6b2222881482e6f4c930e7f1f1b363c6, type: 2}
  - m_RefCount: 1
    m_Data: {fileID: 11400000, guid: 877373d0aa94e624f9e49698c73c430b, type: 2}
  - m_RefCount: 1
    m_Data: {fileID: 11400000, guid: 3b4d3537728653c4abe1550369e90c13, type: 2}
  - m_RefCount: 1
    m_Data: {fileID: 11400000, guid: 8fed406b69020654d940f43b44d6c108, type: 2}
  - m_RefCount: 1
    m_Data: {fileID: 11400000, guid: 933a63ad75c37294f96ce0d5991a5c14, type: 2}
  - m_RefCount: 1
    m_Data: {fileID: 11400000, guid: ea7a96f80c9b36146a11f0f1e975045f, type: 2}
  - m_RefCount: 1
    m_Data: {fileID: 11400000, guid: 70590a3d55016f0409857606dba76a33, type: 2}
  - m_RefCount: 1
    m_Data: {fileID: 11400000, guid: 434d6c5eab1edf64eb3a88ed81b12d32, type: 2}
  - m_RefCount: 1
    m_Data: {fileID: 11400000, guid: 6ce1d4723f4ab3442a62128b8a0568a1, type: 2}
  - m_RefCount: 1
    m_Data: {fileID: 11400000, guid: be1455804c1bd9642ade80e9de646df7, type: 2}
  - m_RefCount: 1
    m_Data: {fileID: 11400000, guid: 9f91aa98495cc6243bb167b0a50863a1, type: 2}
  - m_RefCount: 1
    m_Data: {fileID: 11400000, guid: f77e6c552bde309448261d26739695a5, type: 2}
  - m_RefCount: 1
    m_Data: {fileID: 11400000, guid: 3839ca1ffec27b3449fbb3c2412f3414, type: 2}
  - m_RefCount: 1
    m_Data: {fileID: 11400000, guid: a3f7d8dcc0a54974a85ab81c6ad7d1d7, type: 2}
  - m_RefCount: 1
    m_Data: {fileID: 11400000, guid: fc36566f53ce88f49a524383c8231d63, type: 2}
  - m_RefCount: 1
    m_Data: {fileID: 11400000, guid: b4480e1ae3162f44496763996bfcd191, type: 2}
  - m_RefCount: 1
    m_Data: {fileID: 11400000, guid: eb6cbaccf3834d64dab5f88dfe612baa, type: 2}
  - m_RefCount: 1
    m_Data: {fileID: 11400000, guid: 6b4912b1a97590b40b9ea2ef0d54d0dc, type: 2}
  - m_RefCount: 1
    m_Data: {fileID: 11400000, guid: 2bf7d8a3002abd0499d70e7b7dbe8385, type: 2}
  - m_RefCount: 1
    m_Data: {fileID: 11400000, guid: f620ee8886be3f24a9edfb2f1ce3f0d4, type: 2}
  - m_RefCount: 1
    m_Data: {fileID: 11400000, guid: e77871acf9fae5149b71218f78ed0aea, type: 2}
  - m_RefCount: 1
    m_Data: {fileID: 11400000, guid: b389ebad6f9c09b45821db359d3152fe, type: 2}
  - m_RefCount: 1
    m_Data: {fileID: 11400000, guid: 8ba7b30fdfb2e2b40a7ca8bf0eb0e748, type: 2}
  - m_RefCount: 1
    m_Data: {fileID: 11400000, guid: b2c0a4f3151346741903d7a7c1ce1678, type: 2}
  - m_RefCount: 1
    m_Data: {fileID: 11400000, guid: 9ad31901d59fe6c41894aedb40a52a95, type: 2}
  - m_RefCount: 1
    m_Data: {fileID: 11400000, guid: a311f7d118d3d3446aaefa52b7120a25, type: 2}
  - m_RefCount: 1
    m_Data: {fileID: 0}
  m_TileSpriteArray:
  - m_RefCount: 1
    m_Data: {fileID: 21300000, guid: 3d87fc2bea9422742b654beee1107386, type: 3}
  - m_RefCount: 1
    m_Data: {fileID: 21300000, guid: d7f630bee28cd2f4eac87081bfdc5c61, type: 3}
  - m_RefCount: 1
    m_Data: {fileID: 21300000, guid: a4503aed0cc85a64da1cac4a6493d870, type: 3}
  - m_RefCount: 1
    m_Data: {fileID: 21300000, guid: 079787dc73e9cfb4aabcd68f7446f7fa, type: 3}
  - m_RefCount: 1
    m_Data: {fileID: 21300000, guid: 1a17eead817f69c41b4df3e7b94fe57e, type: 3}
  - m_RefCount: 1
    m_Data: {fileID: 21300000, guid: b311662a241d2524a92b3820df9a07bb, type: 3}
  - m_RefCount: 1
    m_Data: {fileID: 21300000, guid: 666898fcccebd8a488b05ede00fdceb6, type: 3}
  - m_RefCount: 1
    m_Data: {fileID: 21300000, guid: 5552ac9ac148edd4a89a73f121e09d23, type: 3}
  - m_RefCount: 1
    m_Data: {fileID: 21300000, guid: be82e0fc8275cde4b9ac8bd9c3497701, type: 3}
  - m_RefCount: 1
    m_Data: {fileID: 21300000, guid: 6541f72c0061ecf41bce8378ff426258, type: 3}
  - m_RefCount: 1
    m_Data: {fileID: 21300000, guid: 7d450af3208441e4db775ffa82c4d0f0, type: 3}
  - m_RefCount: 1
    m_Data: {fileID: 21300000, guid: 1f2e69bb050fdcd418dc1bff0d363257, type: 3}
  - m_RefCount: 1
    m_Data: {fileID: 21300000, guid: 2627d8db5733332459e7af7fe2f35f69, type: 3}
  - m_RefCount: 1
    m_Data: {fileID: 21300000, guid: 61d3e57b60480304a994c8eae2d3732d, type: 3}
  - m_RefCount: 1
    m_Data: {fileID: 21300000, guid: 3571ab2c0f48b4945b37a62dc7317d65, type: 3}
  - m_RefCount: 1
    m_Data: {fileID: 21300000, guid: d6d9623790c686f4ca928a7bac2091d3, type: 3}
  - m_RefCount: 1
    m_Data: {fileID: 21300000, guid: 9121df0fc06241244801b9a715e94585, type: 3}
  - m_RefCount: 1
    m_Data: {fileID: 21300000, guid: cfa9e1a83f732864f986e4c3b100e329, type: 3}
  - m_RefCount: 1
    m_Data: {fileID: 21300000, guid: 5a49c01d4b9276d4e81c4f690ff0fa1e, type: 3}
  - m_RefCount: 1
    m_Data: {fileID: 21300000, guid: fc5965ca9e2de584fae7e6a3ac143af0, type: 3}
  - m_RefCount: 1
    m_Data: {fileID: 21300000, guid: 396fa6244369c33469886bb8f9a9575c, type: 3}
  - m_RefCount: 1
    m_Data: {fileID: 21300000, guid: d086521566f9ca5418a8d985f3160a40, type: 3}
  - m_RefCount: 1
    m_Data: {fileID: 21300000, guid: c2cf58c61cb3417409c87b22d68721f3, type: 3}
  - m_RefCount: 1
    m_Data: {fileID: 21300000, guid: 8dc4681c5333660448b242b3f635f5e2, type: 3}
  - m_RefCount: 1
    m_Data: {fileID: 21300000, guid: fce348f93bfdb394cb29a6d409a18603, type: 3}
  - m_RefCount: 1
    m_Data: {fileID: 21300000, guid: 0768d0f4701b29945b91994858fbe84d, type: 3}
  - m_RefCount: 1
    m_Data: {fileID: 21300000, guid: 06c40821ebb8a4f4686c4a0aff849470, type: 3}
  - m_RefCount: 1
    m_Data: {fileID: 21300000, guid: c02309d583a671e4a80340826f042317, type: 3}
  - m_RefCount: 1
    m_Data: {fileID: 21300000, guid: 6af4bd3b768a2574b84e80137a728f03, type: 3}
  - m_RefCount: 1
    m_Data: {fileID: 21300000, guid: 64cfe16b84849b64c9dd30354920af2a, type: 3}
  - m_RefCount: 1
    m_Data: {fileID: 21300000, guid: 3ce4fb616b3bb3b44bc8cdca998924c9, type: 3}
  - m_RefCount: 1
    m_Data: {fileID: 21300000, guid: adb611ab3f2fd8e45877c4eb46fd9681, type: 3}
  - m_RefCount: 1
    m_Data: {fileID: 21300000, guid: 02d054ada3477a940b415bc59c2c4b16, type: 3}
  - m_RefCount: 1
    m_Data: {fileID: 21300000, guid: 1344518bb77c984439e2722f5273390a, type: 3}
  - m_RefCount: 1
    m_Data: {fileID: 21300000, guid: 90e4267b8704339429a7695453effd3d, type: 3}
  - m_RefCount: 1
    m_Data: {fileID: 21300000, guid: db222e4b636c8124286714ccbc949353, type: 3}
  - m_RefCount: 1
    m_Data: {fileID: 21300000, guid: eb4ee2f92b9495d4dbebca41014b7bc5, type: 3}
  - m_RefCount: 1
    m_Data: {fileID: 21300000, guid: 2b03dbe9eb664734b8cbd934b7638b20, type: 3}
  - m_RefCount: 1
    m_Data: {fileID: 0}
  m_TileMatrixArray:
  - m_RefCount: 39
    m_Data:
      e00: 1
      e01: 0
      e02: 0
      e03: 0
      e10: 0
      e11: 1
      e12: 0
      e13: 0
      e20: 0
      e21: 0
      e22: 1
      e23: 0
      e30: 0
      e31: 0
      e32: 0
      e33: 1
  m_TileColorArray:
  - m_RefCount: 0
    m_Data: {r: -7.239697e-27, g: -7.239697e-27, b: -7.239697e-27, a: -7.239697e-27}
  - m_RefCount: 0
    m_Data: {r: 0, g: 0, b: 0, a: 0}
  - m_RefCount: 0
    m_Data: {r: 0, g: 0, b: 0, a: 0}
  - m_RefCount: 0
    m_Data: {r: 0, g: 0, b: 0, a: 0}
  - m_RefCount: 38
    m_Data: {r: 1, g: 1, b: 1, a: 1}
  - m_RefCount: 1
    m_Data: {r: 0.9019917, g: 0.43460086, b: 0.44540557, a: 1}
  m_TileObjectToInstantiateArray: []
  m_AnimationFrameRate: 1
  m_Color: {r: 1, g: 1, b: 1, a: 1}
  m_Origin: {x: -1, y: -8, z: 0}
  m_Size: {x: 9, y: 12, z: 1}
  m_TileAnchor: {x: 0.5, y: 0.5, z: 0}
  m_TileOrientation: 0
  m_TileOrientationMatrix:
    e00: 1
    e01: 0
    e02: 0
    e03: 0
    e10: 0
    e11: 1
    e12: 0
    e13: 0
    e20: 0
    e21: 0
    e22: 1
    e23: 0
    e30: 0
    e31: 0
    e32: 0
    e33: 1
--- !u!483693784 &2956582636385382909
TilemapRenderer:
  m_ObjectHideFlags: 0
  m_CorrespondingSourceObject: {fileID: 0}
  m_PrefabInstance: {fileID: 0}
  m_PrefabAsset: {fileID: 0}
  m_GameObject: {fileID: 3663316881368206340}
  m_Enabled: 1
  m_CastShadows: 0
  m_ReceiveShadows: 0
  m_DynamicOccludee: 0
  m_MotionVectors: 1
  m_LightProbeUsage: 0
  m_ReflectionProbeUsage: 0
  m_RayTracingMode: 0
  m_RayTraceProcedural: 0
  m_RenderingLayerMask: 1
  m_RendererPriority: 0
  m_Materials:
  - {fileID: 10754, guid: 0000000000000000f000000000000000, type: 0}
  m_StaticBatchInfo:
    firstSubMesh: 0
    subMeshCount: 0
  m_StaticBatchRoot: {fileID: 0}
  m_ProbeAnchor: {fileID: 0}
  m_LightProbeVolumeOverride: {fileID: 0}
  m_ScaleInLightmap: 1
  m_ReceiveGI: 1
  m_PreserveUVs: 0
  m_IgnoreNormalsForChartDetection: 0
  m_ImportantGI: 0
  m_StitchLightmapSeams: 1
  m_SelectedEditorRenderState: 0
  m_MinimumChartSize: 4
  m_AutoUVMaxDistance: 0.5
  m_AutoUVMaxAngle: 89
  m_LightmapParameters: {fileID: 0}
  m_SortingLayerID: 0
  m_SortingLayer: 0
  m_SortingOrder: 0
  m_ChunkSize: {x: 32, y: 32, z: 32}
  m_ChunkCullingBounds: {x: 2, y: 2, z: 0}
  m_MaxChunkCount: 16
  m_MaxFrameAge: 16
  m_SortOrder: 0
  m_Mode: 0
  m_DetectChunkCullingBounds: 0
  m_MaskInteraction: 0
--- !u!1 &7648658527660844337
GameObject:
  m_ObjectHideFlags: 0
  m_CorrespondingSourceObject: {fileID: 0}
  m_PrefabInstance: {fileID: 0}
  m_PrefabAsset: {fileID: 0}
  serializedVersion: 6
  m_Component:
  - component: {fileID: 1260895910542913613}
  - component: {fileID: 3400452807450798133}
  m_Layer: 31
  m_Name: Bakaneko
  m_TagString: Untagged
  m_Icon: {fileID: 0}
  m_NavMeshLayer: 0
  m_StaticEditorFlags: 0
  m_IsActive: 1
--- !u!4 &1260895910542913613
Transform:
  m_ObjectHideFlags: 0
  m_CorrespondingSourceObject: {fileID: 0}
  m_PrefabInstance: {fileID: 0}
  m_PrefabAsset: {fileID: 0}
  m_GameObject: {fileID: 7648658527660844337}
  m_LocalRotation: {x: 0, y: 0, z: 0, w: 1}
  m_LocalPosition: {x: 0, y: 0, z: 0}
  m_LocalScale: {x: 1, y: 1, z: 1}
  m_Children:
  - {fileID: 5518022054918831733}
  m_Father: {fileID: 0}
  m_RootOrder: 0
  m_LocalEulerAnglesHint: {x: 0, y: 0, z: 0}
--- !u!156049354 &3400452807450798133
Grid:
  m_ObjectHideFlags: 0
  m_CorrespondingSourceObject: {fileID: 0}
  m_PrefabInstance: {fileID: 0}
  m_PrefabAsset: {fileID: 0}
  m_GameObject: {fileID: 7648658527660844337}
  m_Enabled: 1
  m_CellSize: {x: 1.25, y: 1.25, z: 0}
  m_CellGap: {x: 0, y: 0, z: 0}
  m_CellLayout: 0
  m_CellSwizzle: 0
--- !u!114 &5158999431890782308
MonoBehaviour:
  m_ObjectHideFlags: 0
  m_CorrespondingSourceObject: {fileID: 0}
  m_PrefabInstance: {fileID: 0}
  m_PrefabAsset: {fileID: 0}
  m_GameObject: {fileID: 0}
  m_Enabled: 1
  m_EditorHideFlags: 0
  m_Script: {fileID: 12395, guid: 0000000000000000e000000000000000, type: 0}
  m_Name: Palette Settings
  m_EditorClassIdentifier: 
  cellSizing: 0
  m_TransparencySortMode: 0
  m_TransparencySortAxis: {x: 0, y: 0, z: 1}
