%YAML 1.1
%TAG !u! tag:unity3d.com,2011:
--- !u!114 &11400000
MonoBehaviour:
  m_ObjectHideFlags: 0
  m_CorrespondingSourceObject: {fileID: 0}
  m_PrefabInstance: {fileID: 0}
  m_PrefabAsset: {fileID: 0}
  m_GameObject: {fileID: 0}
  m_Enabled: 1
  m_EditorHideFlags: 0
  m_Script: {fileID: 11500000, guid: 54f607e388e93ac4381facab00417b26, type: 3}
  m_Name: PID_MagicObjects
  m_EditorClassIdentifier: 
  ProportionalGain: 1
  IntegralGain: 0
  DerivativeGain: 0.1
  MaxForce: 100
